…
``` r
bibs_clean %>% as_tibble()
```

```         
## # A tibble: 1,240 × 14
##    STUDY_ID INCLUDE source_type author    year title jour_s volume issue start…¹
##       <int> <chr>   <chr>       <chr>    <dbl> <chr> <chr>  <chr>  <chr> <chr>  
##  1        2 YES     JOUR        Adams, …  2017 Taki… Oryx   51     2     347    
##  2        4 YES     JOUR        Braaker…  2014 Habi… Ecolo… 95     4     1010   
##  3        5 REVIEW  JOUR        Belote,…  2020 Deli… Conse… 2      6     <NA>   
##  4        6 REVIEW  JOUR        Castill…  2020 Conn… Land   9      8     239    
##  5        8 REVIEW  JOUR        Cao, Yu…  2020 Link… Biolo… 251    <NA>  108679 
##  6        9 MAYBE   JOUR        Correa …  2017 Anth… Ecolo… 72     <NA>  895    
##  7       12 REVIEW  JOUR        Duflot,…  2018 Comb… Journ… 46     <NA>  38     
##  8       15 MAYBE   JOUR        Ghoddou…  2020 Mapp… Lands… 35     8     1809   
##  9       17 REVIEW  BOOK        Hilty, …  2020 Guid… Book   <NA>   <NA>  <NA>   
## 10       19 MAYBE   JOUR        La Poll…  1993 Effe… Lands… 8      1     25     
## # … with 1,230 more rows, 4 more variables: end_page <chr>, abstract <chr>,
## #   doi <chr>, url <chr>, and abbreviated variable name ¹​start_page
```
…
```         
## [1] "You already have 95 of these. Consider filtering before running `get_and_save()` or running `get_and_save()` with dupe_strategy = 'ignore'."
```

```         
## # A tibble: 97 × 19
##    STUDY_ID label INCLUDE sourc…¹ author  year title jour_s volume issue start…²
##       <int> <chr> <chr>   <chr>   <chr>  <dbl> <chr> <chr>  <chr>  <chr> <chr>  
##  1        4 Braa… YES     JOUR    Braak…  2014 Habi… Ecolo… 95     4     1010   
##  2      134 Whit… YES     RPRT    Whitt…  2022 Town… Movem… 10     1     n/a    
##  3      273 Brod… YES     JOUR    Brodi…  2015 Eval… Conse… 29     1     122    
##  4      283 Albe… YES     JOUR    Alber…  2017 Appl… Conse… 31     6     1383   
##  5      283 Albe… YES     JOUR    Alber…  2017 Appl… Conse… 31     6     1383   
##  6      361 Garf… YES     JOUR    Garfi…  2022 Powe… Susta… 14     12    7113   
##  7      384 Hale… YES     JOUR    Hale,…  2015 The … Globa… 21     7     2467   
##  8      413 Lamp… YES     JOUR    Lampi…  2015 Urba… Plos … 10     11    e01422…
##  9      441 Mime… YES     RPRT    Mimet…  2019 Cont… Biorx… <NA>   <NA>  579227 
## 10      447 Olej… YES     JOUR    Olejn…  2018 Urba… Journ… 4      1     <NA>   
## # … with 87 more rows, 8 more variables: end_page <chr>, abstract <chr>,
## #   doi <chr>, url <chr>, num_authors <int>, url_for_pdf <chr>,
## #   save_names_full_path <fs::path>, got_this_already <dbl>, and abbreviated
## #   variable names ¹​source_type, ²​start_page
```
…
